Hillary Clinton

George Bush
Al Gore

John Lennon

Louella Floris

Gwendolin Bahrmasel

Faydra Kaduk

Jodee Kelleher

Roz Krzewinski
Junie Strube
Elsie Debonis
Karna Kofa
Stepha Ferrill
Perrine Sedore

Lesya Luczynski

Cordy Chubb

Milzie Schillaci

Kayley Corporan

Karalynn Speck
